{
    "chats": [
      {
        "chat_id": "338125566238",
        "alias_id": "",
        "created_at": "2017-10-31T19:21:59.387",
        "updated_at": "2018-02-08T12:25:52.083",
        "status": "closed",
        "channel": "sms",
        "asset": {
          "id": "12345",
          "name": "12345"
        },
        "customer_id": "338125566238",
        "destination_id": "338125566238",
        "assignee": "malli",
        "tags": [],
        "other_details": {}
      },
      {
        "chat_id": "338125566237",
        "alias_id": "",
        "created_at": "2017-10-31T19:21:59.263",
        "updated_at": "2018-02-08T12:25:52.083",
        "status": "closed",
        "channel": "sms",
        "asset": {
          "id": "12345",
          "name": "12345"
        },
        "customer_id": "338125566237",
        "destination_id": "338125566237",
        "assignee": "malli",
        "tags": [],
        "other_details": {}
      },
      {
        "chat_id": "338125566236",
        "alias_id": "",
        "created_at": "2017-10-31T19:21:59.137",
        "updated_at": "2018-02-08T12:25:52.083",
        "status": "closed",
        "channel": "sms",
        "asset": {
          "id": "12345",
          "name": "12345"
        },
        "customer_id": "338125566236",
        "destination_id": "338125566236",
        "assignee": "malli",
        "tags": [],
        "other_details": {}
      },
      {
        "chat_id": "338125566235",
        "alias_id": "",
        "created_at": "2017-10-31T19:21:58.987",
        "updated_at": "2018-02-08T12:25:52.083",
        "status": "closed",
        "channel": "sms",
        "asset": {
          "id": "12345",
          "name": "12345"
        },
        "customer_id": "338125566235",
        "destination_id": "338125566235",
        "assignee": "malli",
        "tags": [],
        "other_details": {}
      },
      {
        "chat_id": "338125566234",
        "alias_id": "",
        "created_at": "2017-10-31T19:21:58.847",
        "updated_at": "2018-02-08T12:25:52.083",
        "status": "closed",
        "channel": "sms",
        "asset": {
          "id": "12345",
          "name": "12345"
        },
        "customer_id": "338125566234",
        "destination_id": "338125566234",
        "assignee": "malli",
        "tags": [],
        "other_details": {}
      },
      {
        "chat_id": "338125566233",
        "alias_id": "",
        "created_at": "2017-10-31T19:21:58.703",
        "updated_at": "2018-02-08T12:25:52.083",
        "status": "closed",
        "channel": "sms",
        "asset": {
          "id": "12345",
          "name": "12345"
        },
        "customer_id": "338125566233",
        "destination_id": "338125566233",
        "assignee": "malli",
        "tags": [],
        "other_details": {}
      },
      {
        "chat_id": "338125566232",
        "alias_id": "",
        "created_at": "2017-10-31T19:21:58.557",
        "updated_at": "2018-02-08T12:25:52.083",
        "status": "closed",
        "channel": "sms",
        "asset": {
          "id": "12345",
          "name": "12345"
        },
        "customer_id": "338125566232",
        "destination_id": "338125566232",
        "assignee": "malli",
        "tags": [],
        "other_details": {}
      },
      {
        "chat_id": "338125566231",
        "alias_id": "",
        "created_at": "2017-10-31T19:21:58.413",
        "updated_at": "2018-02-08T12:25:52.083",
        "status": "closed",
        "channel": "sms",
        "asset": {
          "id": "12345",
          "name": "12345"
        },
        "customer_id": "338125566231",
        "destination_id": "338125566231",
        "assignee": "malli",
        "tags": [],
        "other_details": {}
      },
      {
        "chat_id": "338125566230",
        "alias_id": "",
        "created_at": "2017-10-31T19:21:58.29",
        "updated_at": "2018-02-08T12:25:52.083",
        "status": "closed",
        "channel": "sms",
        "asset": {
          "id": "12345",
          "name": "12345"
        },
        "customer_id": "338125566230",
        "destination_id": "338125566230",
        "assignee": "malli",
        "tags": [],
        "other_details": {}
      },
      {
        "chat_id": "338125566229",
        "alias_id": "",
        "created_at": "2017-10-31T19:21:58.163",
        "updated_at": "2018-02-08T12:25:52.083",
        "status": "closed",
        "channel": "sms",
        "asset": {
          "id": "12345",
          "name": "12345"
        },
        "customer_id": "338125566229",
        "destination_id": "338125566229",
        "assignee": "malli",
        "tags": [],
        "other_details": {}
      }
    ],
    "links": {
      "first": "{apiUrl}/chats?page=1",
      "previous": "{apiUrl}/chats?page=99",
      "next": "{apiUrl}/chats?page=101",
      "last": "{apiUrl}/chats?page=2628",
      "pages": 2628,
      "total_count": 26280
    }
}